[
    {
        "text": "<<table>>",
        "title": "$:/plugins/aaldrich/task-manager/task-table",
        "tbl-style-table": "",
        "tbl-style-container": "",
        "tbl-style-colgroup": "<col><col><col><col><col><col style=\"width:60px;\"><col><col>",
        "tbl-sort-type": "nsort",
        "tbl-sort-negate": "false",
        "tbl-sort-by": "title",
        "tbl-show-pagination": "false",
        "tbl-show-header": "true",
        "tbl-show-footer": "false",
        "tbl-show-edit": "false",
        "tbl-show-colgroup": "true",
        "tbl-show-caption": "true",
        "tbl-page-marker": "",
        "tbl-mode": "normal",
        "tbl-limit": "9999999",
        "tbl-filter": "[all[shadows+tiddlers]]+[field:tbl-type[task]field:link<currentRecord>]-[[Task]]",
        "tbl-expand": "$:/plugins/aaldrich/tables/template/expand/edit",
        "tbl-columns": "tbl-checkbox tbl-expand-many title tags status priority tbl-button tbl-delete",
        "tbl-class": "tbl-style-tight",
        "tbl-checkbox-value-unselected": "rework",
        "tbl-checkbox-value-selected": "complete",
        "tbl-checkbox-tip": "mark complete",
        "tbl-checkbox-tag": "complete",
        "tbl-checkbox-field": "status",
        "tbl-checkbox-actions-unselected": "<$action-setfield $tiddler=<<tempTableStyle>> $index=<<currentRecord>> $value=\"\" />",
        "tbl-checkbox-actions-selected": "<$action-setfield $tiddler=<<tempTableStyle>> $index=<<currentRecord>> $value=\"background-color:#00f2a9;text-decoration: line-through;color:black;\" />",
        "tbl-caption": "<div style=\"text-align:left;\" >__''Project: ''<$text text=<<currentRecord>>/>__<br>''Tags: ''<$edit-text size=\"60\" placeholder=\"Enter tags...\" tiddler=<<currentRecord>> field=\"tags\" class=\"tbl-hidden-edit\"/><br>''Description: ''<$edit-text size=\"60\" placeholder=\"Enter description...\" tiddler=<<currentRecord>> field=\"description\" class=\"tbl-hidden-edit\"/> <br><$edit-text tag=textarea placeholder=\"Enter project notes...\" tiddler=<<currentRecord>> field=\"text\" class=\"tbl-hidden-edit-wide\"/>''Tasks assigned to <$text text=<<currentRecord>>/>'' | //<$button class=\"tc-btn-invisible\"><$action-setfield $tiddler=\"Task\" link=<<currentRecord>>/><$action-sendmessage $message=\"tm-new-tiddler\" $param=\"Task\"/>''new task {{$:/core/images/new-button}}''</$button>//</div>",
        "tbl-button-tip": "clone task",
        "tbl-button-icon": "{{$:/core/images/clone-button}}",
        "tbl-button-actions": "<$action-sendmessage $message=\"tm-new-tiddler\" $param=<<currentRecord>>/>",
        "tbl-anything": "<$select tiddler=<<currentRecord>> field=\"status\" default=\"\">\n<option value=''>Select...</option>\n<option value='open'>open</option>\n<option value='not started'>not started</option>\n<option value='in-work'>in-work</option>\n<option value='on-hold'>on-hold</option>\n<option value='complete'>complete</option>\n<option value='rework'>rework</option>\n<option value='closed'>closed</option>\n</$select>",
        "tbl-add-records": "",
        "tags": "[[task manager]]",
        "modified": "20191205042139062",
        "created": "20170212200455807"
    }
]