[
    {
        "title": "$:/plugins/linonetwo/visualization-dashboard/tiddlywiki-ui/filter/weekstart.js",
        "type": "application/javascript",
        "module-type": "filteroperator",
        "Modern.TiddlyDev#Origin": "filter/weekstart.ts",
        "text": "\"use strict\";var __defProp=Object.defineProperty,__getOwnPropDesc=Object.getOwnPropertyDescriptor,__getOwnPropNames=Object.getOwnPropertyNames,__hasOwnProp=Object.prototype.hasOwnProperty,__export=(e,t)=>{for(var r in t)__defProp(e,r,{get:t[r],enumerable:!0})},__copyProps=(t,r,o,_)=>{if(r&&\"object\"==typeof r||\"function\"==typeof r)for(let e of __getOwnPropNames(r))__hasOwnProp.call(t,e)||e===o||__defProp(t,e,{get:()=>r[e],enumerable:!(_=__getOwnPropDesc(r,e))||_.enumerable});return t},__toCommonJS=e=>__copyProps(__defProp({},\"__esModule\",{value:!0}),e),weekstart_exports={};function getStartDateOfWeek(e=0){var t=new Date,r=(t.getDay()||7)-1+7*e;return t.setDate(t.getDate()-r),t.setHours(0,0,0,0),t}__export(weekstart_exports,{weekstart:()=>weekstart}),module.exports=__toCommonJS(weekstart_exports);var weekstart=(e,t)=>{let r=Number(t.operand||0);return Number.isNaN(r)&&(r=0),[$tw.utils.formatDateString(getStartDateOfWeek(r),\"[UTC]YYYY0MM0DD0hh0mm0ss0XXX\")]};"
    }
]