[
    {
        "title": "$:/plugins/linonetwo/visualization-dashboard/tiddlywiki-ui/filter/daysbetween.js",
        "type": "application/javascript",
        "module-type": "filteroperator",
        "Modern.TiddlyDev#Origin": "filter/daysbetween.ts",
        "text": "\"use strict\";var __defProp=Object.defineProperty,__getOwnPropDesc=Object.getOwnPropertyDescriptor,__getOwnPropNames=Object.getOwnPropertyNames,__hasOwnProp=Object.prototype.hasOwnProperty,__export=(e,t)=>{for(var r in t)__defProp(e,r,{get:t[r],enumerable:!0})},__copyProps=(t,r,o,a)=>{if(r&&\"object\"==typeof r||\"function\"==typeof r)for(let e of __getOwnPropNames(r))__hasOwnProp.call(t,e)||e===o||__defProp(t,e,{get:()=>r[e],enumerable:!(a=__getOwnPropDesc(r,e))||a.enumerable});return t},__toCommonJS=e=>__copyProps(__defProp({},\"__esModule\",{value:!0}),e),daysbetween_exports={};function getDateToCompareFromTiddler(t,e){if(e){let e=null;if(null!==(e=null===(e=t.fields.endDate&&(r=$tw.utils.parseDate(t.fields.endDate))?r:e)&&t.fields.startDate&&(r=$tw.utils.parseDate(t.fields.startDate))?r:e))return e}else{let e=null;var r;if(null!==(e=null===(e=t.fields.startDate&&(r=$tw.utils.parseDate(t.fields.startDate))?r:e)&&t.fields.endDate&&(r=$tw.utils.parseDate(t.fields.endDate))?r:e))return e}}function getDiffInDays(e,t){var r=e.getTime()-t.getTime();return Math.round(r/864e5)}function getDateToCompareOrTodayFromOperand(e){let t=null;return t=null===(t=e?$tw.utils.parseDate(e):t)?new Date:t}__export(daysbetween_exports,{daysbetween:()=>daysbetween}),module.exports=__toCommonJS(daysbetween_exports);var daysbetween=(e,t)=>{const o=\"!\"!==t.prefix,a=getDateToCompareOrTodayFromOperand(t.operands[0]),n=[];return e(function(e,t){var r;e&&(void 0===(r=getDateToCompareFromTiddler(e,o))?n.push(\"\"):(r=o?getDiffInDays(a,r):getDiffInDays(r,a),n.push(String(r))))}),n};"
    }
]