[
    {
        "title": "$:/plugins/linonetwo/visualization-dashboard/tiddlywiki-ui/macro/weekend.js",
        "type": "application/javascript",
        "module-type": "macro",
        "Modern.TiddlyDev#Origin": "macro/weekend.ts",
        "text": "\"use strict\";function getStartDateOfWeek(e=0){var t=new Date,a=(t.getDay()||7)-1+7*e;return t.setDate(t.getDate()-a),t.setHours(0,0,0,0),t}function getEndDateOfWeek(e=0){var t=getStartDateOfWeek(e),a=new Date(t);return a.setDate(t.getDate()+6),a.setHours(23,59,59,999),a}exports.name=\"weekend\",exports.params=[{name:\"offset\",\"default\":\"\"}],exports.run=e=>{let t=Number(e||0);return Number.isNaN(t)&&(t=0),$tw.utils.formatDateString(getEndDateOfWeek(t),\"[UTC]YYYY0MM0DD0hh0mm0ss0XXX\")};"
    }
]